<?xml version="1.0" encoding="UTF-8"?>
<svg width="10px" height="16px" viewBox="0 0 10 16" version="1.1" xmlns="http://www.w3.org/2000/svg" xmlns:xlink="http://www.w3.org/1999/xlink">
    <!-- Generator: Sketch 42 (36781) - http://www.bohemiancoding.com/sketch -->
    <title>Chevron Up_000000</title>
    <desc>Created with Sketch.</desc>
    <defs></defs>
    <g id="Coach-Interface" stroke="none" stroke-width="1" fill="none" fill-rule="evenodd">
        <g id="coach-interface/call/before-error" transform="translate(-753.000000, -70.000000)" fill-rule="nonzero" fill="#46CEFC">
            <g id="Chevron-Up_000000" transform="translate(758.000000, 78.000000) rotate(-90.000000) translate(-758.000000, -78.000000) translate(750.000000, 73.000000)">
                <path d="M8.19375004,-5.35867649e-13 C8.10134076,0.000865097825 8.01292066,0.0354235693 7.94722204,0.096354 L0.45,7.06770833 C0.310625179,7.19734513 0.309692569,7.40834749 0.447916658,7.53906267 L2.57222222,9.547526 C2.71050141,9.67818995 2.93557059,9.67906436 3.07500018,9.54947933 L8.17847218,4.80468733 L13.2388889,9.58854167 C13.3771682,9.71920552 13.6022374,9.72007979 13.7416668,9.59049467 L15.8840277,7.59895833 C15.9511716,7.53667739 15.9891258,7.45191122 15.9895166,7.36336089 C15.9899075,7.27481057 15.9527031,7.1897528 15.8861113,7.126953 L8.45,0.0983073333 C8.38225818,0.0344278975 8.28982573,-0.00103274484 8.19375004,-5.35867649e-13 L8.19375004,-5.35867649e-13 Z" id="Shape"></path>
            </g>
        </g>
    </g>
</svg>