<?xml version="1.0" encoding="UTF-8"?>
<svg width="22px" height="22px" viewBox="0 0 22 22" version="1.1" xmlns="http://www.w3.org/2000/svg" xmlns:xlink="http://www.w3.org/1999/xlink">
    <!-- Generator: Sketch 46.2 (44496) - http://www.bohemiancoding.com/sketch -->
    <title>Shape</title>
    <desc>Created with Sketch.</desc>
    <defs></defs>
    <g id="Symbols" stroke="none" stroke-width="1" fill="none" fill-rule="evenodd">
        <g id="panel/chat---Bot-alerts-coach" transform="translate(-189.000000, -469.000000)" fill-rule="nonzero" fill="#DDAE78">
            <path d="M200,469 C193.924219,469 189,473.924219 189,480 C189,486.075782 193.924219,491 200,491 C206.075782,491 211,486.075782 211,480 C211,473.924219 206.075782,469 200,469 Z M201.1,485.5 L198.9,485.5 L198.9,478.9 L201.1,478.9 L201.1,485.5 Z M201.1,476.7 L198.9,476.7 L198.9,474.5 L201.1,474.5 L201.1,476.7 Z" id="Shape"></path>
        </g>
    </g>
</svg>