<?xml version="1.0" encoding="UTF-8"?>
<svg width="16px" height="16px" viewBox="0 0 16 16" version="1.1" xmlns="http://www.w3.org/2000/svg" xmlns:xlink="http://www.w3.org/1999/xlink">
    <!-- Generator: Sketch 42 (36781) - http://www.bohemiancoding.com/sketch -->
    <title>Group 17 Copy 4</title>
    <desc>Created with Sketch.</desc>
    <defs></defs>
    <g id="Coach-Interface" stroke="none" stroke-width="1" fill="none" fill-rule="evenodd">
        <g id="panel/call-notes/active-copy" transform="translate(-10.000000, -776.000000)">
            <g id="Group-17-Copy-4" transform="translate(10.000000, 776.000000)">
                <ellipse id="Oval-Copy" fill="#46CEFC" cx="8" cy="8" rx="8" ry="8"></ellipse>
                <path d="M6.86243734,5.00733573 C6.38612635,4.72714194 6,4.95118393 6,5.49989673 L6,10.3765661 C6,10.9287938 6.3835012,11.1508765 6.86243734,10.8691528 L10.9824777,8.44562849 C11.4587887,8.16544889 11.4614138,7.71272077 10.9824777,7.43098272 L6.86243734,5.00733573 Z" id="Shape" fill="#FFFFFF"></path>
            </g>
        </g>
    </g>
</svg>