<?xml version="1.0" encoding="UTF-8"?>
<svg width="16px" height="16px" viewBox="0 0 16 16" version="1.1" xmlns="http://www.w3.org/2000/svg" xmlns:xlink="http://www.w3.org/1999/xlink">
    <!-- Generator: Sketch 46.2 (44496) - http://www.bohemiancoding.com/sketch -->
    <title>icon/add message/general-active</title>
    <desc>Created with Sketch.</desc>
    <defs></defs>
    <g id="Symbols" stroke="none" stroke-width="1" fill="none" fill-rule="evenodd">
        <g id="icon/add-message/general-active">
            <path d="M8,1 C12.4173913,1 16,4.06818182 16,7.81818182 C16,9.93181818 14.8521739,11.9431818 12.8695652,13.2045455 C12.9043478,13.5795455 13.1130435,14.4318182 13.8434783,15.4545455 L14.226087,16 L13.5304348,16 C11.6521739,16 10.3652174,14.875 9.94782609,14.4318182 C9.32173913,14.5681818 8.66086957,14.6363636 8,14.6363636 C3.5826087,14.6363636 0,11.5681818 0,7.81818182 C0,4.06818182 3.5826087,1 8,1 Z" id="chat-icon" fill="#46CEFC"></path>
            <g id="Group" transform="translate(4.000000, 7.000000)" fill="#FFFFFF">
                <circle id="Oval-4" cx="1" cy="1" r="1"></circle>
                <circle id="Oval-4-Copy" cx="4" cy="1" r="1"></circle>
                <circle id="Oval-4-Copy-2" cx="7" cy="1" r="1"></circle>
            </g>
        </g>
    </g>
</svg>