<?xml version="1.0" encoding="UTF-8"?>
<svg width="16px" height="16px" viewBox="0 0 16 16" version="1.1" xmlns="http://www.w3.org/2000/svg" xmlns:xlink="http://www.w3.org/1999/xlink">
    <!-- Generator: Sketch 46.2 (44496) - http://www.bohemiancoding.com/sketch -->
    <title>icon/add message/current-graph</title>
    <desc>Created with Sketch.</desc>
    <defs></defs>
    <g id="Symbols" stroke="none" stroke-width="1" fill="none" fill-rule="evenodd" opacity="0.3">
        <g id="icon/add-message/current-graph">
            <path d="M0.55026454,3 L1.90476192,3 C2.20866463,3 2.45502646,2.77614237 2.45502646,2.5 C2.45502646,2.22385763 2.20866463,2 1.90476192,2 L0.55026454,2 C0.246361826,2 4.27641454e-16,2.22385763 0,2.5 C-4.27641454e-16,2.77614237 0.246361826,3 0.55026454,3 Z M3.93650793,3 L5.29100531,3 C5.59490802,3 5.84126985,2.77614237 5.84126985,2.5 C5.84126985,2.22385763 5.59490802,2 5.29100531,2 L3.93650793,2 C3.63260521,2 3.38624338,2.22385763 3.38624338,2.5 C3.38624338,2.77614237 3.63260521,3 3.93650793,3 Z M7.32275131,3 L8.67724869,3 C8.9811514,3 9.22751323,2.77614237 9.22751323,2.5 C9.22751323,2.22385763 8.9811514,2 8.67724869,2 L7.32275131,2 C7.0188486,2 6.77248677,2.22385763 6.77248677,2.5 C6.77248677,2.77614237 7.0188486,3 7.32275131,3 Z M10.7089947,3 L12.0634921,3 C12.3673948,3 12.6137566,2.77614237 12.6137566,2.5 C12.6137566,2.22385763 12.3673948,2 12.0634921,2 L10.7089947,2 C10.405092,2 10.1587302,2.22385763 10.1587302,2.5 C10.1587302,2.77614237 10.405092,3 10.7089947,3 Z M14.0952381,3 L15.4497355,3 C15.7536382,3 16,2.77614237 16,2.5 C16,2.22385763 15.7536382,2 15.4497355,2 L14.0952381,2 C13.7913354,2 13.5449735,2.22385763 13.5449735,2.5 C13.5449735,2.77614237 13.7913354,3 14.0952381,3 Z" id="Line" fill="#000000" fill-rule="nonzero"></path>
            <path d="M0.55026454,14 L1.90476192,14 C2.20866463,14 2.45502646,13.7761424 2.45502646,13.5 C2.45502646,13.2238576 2.20866463,13 1.90476192,13 L0.55026454,13 C0.246361826,13 4.27641454e-16,13.2238576 0,13.5 C-4.27641454e-16,13.7761424 0.246361826,14 0.55026454,14 Z M3.93650793,14 L5.29100531,14 C5.59490802,14 5.84126985,13.7761424 5.84126985,13.5 C5.84126985,13.2238576 5.59490802,13 5.29100531,13 L3.93650793,13 C3.63260521,13 3.38624338,13.2238576 3.38624338,13.5 C3.38624338,13.7761424 3.63260521,14 3.93650793,14 Z M7.32275131,14 L8.67724869,14 C8.9811514,14 9.22751323,13.7761424 9.22751323,13.5 C9.22751323,13.2238576 8.9811514,13 8.67724869,13 L7.32275131,13 C7.0188486,13 6.77248677,13.2238576 6.77248677,13.5 C6.77248677,13.7761424 7.0188486,14 7.32275131,14 Z M10.7089947,14 L12.0634921,14 C12.3673948,14 12.6137566,13.7761424 12.6137566,13.5 C12.6137566,13.2238576 12.3673948,13 12.0634921,13 L10.7089947,13 C10.405092,13 10.1587302,13.2238576 10.1587302,13.5 C10.1587302,13.7761424 10.405092,14 10.7089947,14 Z M14.0952381,14 L15.4497355,14 C15.7536382,14 16,13.7761424 16,13.5 C16,13.2238576 15.7536382,13 15.4497355,13 L14.0952381,13 C13.7913354,13 13.5449735,13.2238576 13.5449735,13.5 C13.5449735,13.7761424 13.7913354,14 14.0952381,14 Z" id="Line-Copy" fill="#000000" fill-rule="nonzero"></path>
            <g id="Group-4" transform="translate(0.000000, 4.500000)">
                <polyline id="Path-2" stroke="#000000" stroke-linecap="square" points="1.67138773 1.65827006 4.68176459 4.66864692 7.87162313 2.7620409 11.0109382 5.32061762 15.2011891 4.67791258"></polyline>
                <circle id="Oval-6" fill="#000000" cx="15" cy="4.75" r="1"></circle>
                <circle id="Oval-6-Copy" fill="#000000" cx="11" cy="5" r="1"></circle>
                <circle id="Oval-6-Copy-2" fill="#000000" cx="8" cy="3" r="1"></circle>
                <circle id="Oval-6-Copy-3" fill="#000000" cx="4.75" cy="4.5" r="1"></circle>
                <circle id="Oval-6-Copy-4" fill="#000000" cx="1" cy="1" r="1"></circle>
            </g>
        </g>
    </g>
</svg>