<?xml version="1.0" encoding="UTF-8"?>
<svg width="16px" height="16px" viewBox="0 0 16 16" version="1.1" xmlns="http://www.w3.org/2000/svg" xmlns:xlink="http://www.w3.org/1999/xlink">
    <!-- Generator: Sketch 46.2 (44496) - http://www.bohemiancoding.com/sketch -->
    <title>create new/number-active</title>
    <desc>Created with Sketch.</desc>
    <defs></defs>
    <g id="Symbols" stroke="none" stroke-width="1" fill="none" fill-rule="evenodd">
        <g id="create-new/number-active" fill="#46CEFC">
            <path d="M1.50613915,13 L3,13 L3,3 L1.50204638,3 L0,4.73250173 L0,6.92238392 L1.47748977,5.23146223 L1.50613915,5.23146223 L1.50613915,13 Z M5,6.24543611 L5,6.29276538 L6.49866191,6.29276538 L6.49866191,6.24543611 C6.49866191,5.4408384 6.90008921,4.86612576 7.45316682,4.86612576 C7.98840321,4.86612576 8.33630687,5.3597025 8.33630687,5.98174442 C8.33630687,6.59026369 8.14005352,7.06355646 7.60481713,7.84110886 L5.09366637,11.3434753 L5.09366637,13 L10,13 L10,11.0933063 L7.22123104,11.0933063 L7.22123104,11.045977 L8.76003568,8.89587559 C9.27743087,8.14536849 9.91971454,7.17849899 9.91971454,5.90060852 C9.91971454,4.18999324 8.96966994,3 7.50669045,3 C6.00356824,3 5,4.31845842 5,6.24543611 Z M12.7134354,8.72937294 L13.4617347,8.72937294 C14.0569728,8.72937294 14.4183673,9.17821782 14.4183673,9.91749175 C14.4183673,10.6171617 14.0357143,11.0990099 13.4787415,11.0990099 C12.8835034,11.0990099 12.5136054,10.6435644 12.4880952,9.93069307 L11,9.93069307 C11.0595238,11.7854785 12.0119048,13 13.4532313,13 C14.9795918,13 16,11.8712871 16,10.1221122 C16,8.81518152 15.4090136,7.97029703 14.4991497,7.83828383 L14.4991497,7.78547855 C15.247449,7.58085809 15.7746599,6.74257426 15.7746599,5.58745875 C15.7746599,4.01650165 14.877551,3 13.5127551,3 C12.0884354,3 11.1403061,4.20792079 11.1190476,6.04290429 L12.5306122,6.04290429 C12.547619,5.30363036 12.9090136,4.8019802 13.4447279,4.8019802 C14.0059524,4.8019802 14.3290816,5.2310231 14.3290816,5.91749175 C14.3290816,6.6039604 13.9846939,7.05940594 13.457483,7.05940594 L12.7134354,7.05940594 L12.7134354,8.72937294 Z" id="123-copy"></path>
        </g>
    </g>
</svg>