<?xml version="1.0" encoding="UTF-8"?>
<svg width="32px" height="32px" viewBox="0 0 32 32" version="1.1" xmlns="http://www.w3.org/2000/svg" xmlns:xlink="http://www.w3.org/1999/xlink">
    <!-- Generator: Sketch 46.2 (44496) - http://www.bohemiancoding.com/sketch -->
    <title>use saved/pick@1x</title>
    <desc>Created with Sketch.</desc>
    <defs>
        <rect id="path-1" x="0" y="0" width="32" height="32" rx="2"></rect>
    </defs>
    <g id="Symbols" stroke="none" stroke-width="1" fill="none" fill-rule="evenodd">
        <g id="use-saved/pick">
            <g id="Group-Copy-3">
                <g id="Group-2">
                    <g id="Rectangle-14-Copy">
                        <use fill="#E4E2E2" fill-rule="evenodd" xlink:href="#path-1"></use>
                        <rect stroke="#E4E2E2" stroke-width="1" x="0.5" y="0.5" width="31" height="31" rx="2"></rect>
                    </g>
                    <path d="M16,5 C22.626087,5 28,9.70454545 28,15.4545455 C28,18.6954545 26.2782609,21.7795455 23.3043478,23.7136364 C23.3565217,24.2886364 23.6695652,25.5954545 24.7652174,27.1636364 L25.3391304,28 L24.2956522,28 C21.4782609,28 19.5478261,26.275 18.9217391,25.5954545 C17.9826087,25.8045455 16.9913043,25.9090909 16,25.9090909 C9.37391304,25.9090909 4,21.2045455 4,15.4545455 C4,9.70454545 9.37391304,5 16,5 Z" id="chat-icon" fill="#FFFFFF" transform="translate(16.000000, 16.500000) scale(-1, 1) translate(-16.000000, -16.500000) "></path>
                </g>
                <g id="Group-Copy" transform="translate(10.000000, 11.000000)">
                    <rect id="Rectangle" stroke="#E0DFDF" stroke-width="0.75" x="0.375" y="0.375" width="11.25" height="2.39285714" rx="0.75"></rect>
                    <rect id="Rectangle-Copy" fill="#B2B2B2" x="0" y="3.92857143" width="12" height="3.14285714" rx="0.75"></rect>
                    <rect id="Rectangle-Copy-2" stroke="#E0DFDF" stroke-width="0.75" x="0.375" y="8.23214286" width="11.25" height="2.39285714" rx="0.75"></rect>
                </g>
            </g>
        </g>
    </g>
</svg>