<?xml version="1.0" encoding="UTF-8"?>
<svg width="13px" height="16px" viewBox="0 0 13 16" version="1.1" xmlns="http://www.w3.org/2000/svg" xmlns:xlink="http://www.w3.org/1999/xlink">
    <!-- Generator: Sketch 44.1 (41455) - http://www.bohemiancoding.com/sketch -->
    <title>Shape</title>
    <desc>Created with Sketch.</desc>
    <defs></defs>
    <g id="Coach-Interface" stroke="none" stroke-width="1" fill="none" fill-rule="evenodd">
        <g id="coach-interface---CGM-Window" transform="translate(-921.000000, -193.000000)" fill-rule="nonzero" fill="#46CEFC">
            <g id="Group-Copy" transform="translate(909.000000, 62.000000)">
                <g id="Dropdown" transform="translate(0.000000, 38.000000)">
                    <g id="icons8-pdf_filled" transform="translate(12.000000, 93.000000)">
                        <path d="M0,0 L0,16 L12.5217391,16 L12.5217391,4.67187513 L7.71059791,0 L0,0 Z M7.65217391,0.695652174 L11.826087,4.86956522 L7.65217391,4.86956522 L7.65217391,0.695652174 Z M5.83288035,6.24048904 C6.04401078,6.24048904 6.22875548,6.32944557 6.35258157,6.49048904 C6.61866852,6.8351847 6.60046191,7.53936939 6.29959235,8.5842393 C6.62794017,9.142152 7.0427447,9.64985878 7.46535339,10.009511 C7.92796209,9.91455443 8.32468487,9.86684765 8.64538052,9.866848 C9.61616313,9.866848 9.72078817,10.3524456 9.72078817,10.5611412 C9.72044035,11.2320977 9.00259791,11.232337 8.73233704,11.232337 C8.26868487,11.232337 7.7868967,11.0537663 7.29959235,10.7017663 C6.588288,10.8694184 5.79549461,11.1279457 5.08627722,11.4225544 C4.18575548,12.9675979 3.63777183,12.9673913 3.45516313,12.9673913 C3.34316313,12.9673913 3.23599443,12.9417718 3.13790748,12.8899457 C2.82173357,12.725424 2.78317391,12.4856685 2.78804348,12.3580163 C2.79465217,12.1955816 2.81439687,11.7079294 4.6175273,10.9232337 C4.99630991,10.2397555 5.35346748,9.40994017 5.5910327,8.658288 C5.31659791,8.14315757 4.86691304,7.13142922 5.21195652,6.5672553 C5.34065217,6.35716835 5.561576,6.24048904 5.83288035,6.24048904 Z M5.82336974,6.87160313 C5.8014567,6.87995096 5.78641843,6.88548904 5.783288,6.88722817 C5.73041843,6.93348904 5.71565217,7.18482609 5.84782609,7.60326087 C5.91947826,7.12326087 5.86371757,6.91334226 5.82336974,6.87160313 Z M6.05298922,9.40353252 L6.03736417,9.45720104 L6.02038052,9.42730991 C5.88368487,9.79426643 5.72609252,10.1672717 5.5577447,10.5230977 L5.61277183,10.5 L5.58831513,10.5421197 C5.94448904,10.4158588 6.30695096,10.3018751 6.65964661,10.2044838 L6.64198365,10.1902174 L6.69769009,10.1779892 C6.47160313,9.9470327 6.25298922,9.68492383 6.05298922,9.40353252 Z M8.64470122,10.5061141 C8.54904904,10.5057663 8.4426087,10.5116358 8.32608696,10.5224184 C8.46730435,10.5683315 8.60364139,10.591712 8.73233704,10.591712 C8.90451096,10.591712 8.99653809,10.5783857 9.04279896,10.5672553 C9.00314678,10.5425597 8.89061426,10.5061141 8.64470122,10.5061141 Z M3.849864,12.042799 C3.66934226,12.1593207 3.56048904,12.2525597 3.50135861,12.3172553 C3.570576,12.2915162 3.68882052,12.2142772 3.849864,12.042799 Z" id="Shape"></path>
                    </g>
                </g>
            </g>
        </g>
    </g>
</svg>