<?xml version="1.0" encoding="UTF-8"?>
<svg width="24px" height="24px" viewBox="0 0 24 24" version="1.1" xmlns="http://www.w3.org/2000/svg" xmlns:xlink="http://www.w3.org/1999/xlink">
    <!-- Generator: Sketch 46.2 (44496) - http://www.bohemiancoding.com/sketch -->
    <title>icons8-high_priority</title>
    <desc>Created with Sketch.</desc>
    <defs></defs>
    <g id="Symbols" stroke="none" stroke-width="1" fill="none" fill-rule="evenodd">
        <g id="panel/chat---Bot-alerts-coach-Copy" transform="translate(-188.000000, -468.000000)" fill-rule="nonzero">
            <g id="icons8-high_priority" transform="translate(188.000000, 468.000000)">
                <path d="M10.24,23.36 L0.64,13.76 C-0.213333333,12.9066667 -0.213333333,11.5733333 0.64,10.72 L10.24,1.12 C11.0933333,0.266666667 12.4266667,0.266666667 13.28,1.12 L22.88,10.72 C23.7333333,11.5733333 23.7333333,12.9066667 22.88,13.76 L13.28,23.36 C12.4266667,24.2133333 11.04,24.2133333 10.24,23.36 Z" id="Shape" fill="#D32F2F"></path>
                <path d="M10.4533333,16.9066667 C10.4533333,16.7466667 10.5066667,16.5866667 10.56,16.4266667 C10.6133333,16.2666667 10.72,16.16 10.8266667,16.0533333 C10.9333333,15.9466667 11.0933333,15.84 11.2533333,15.7866667 C11.4133333,15.7333333 11.5733333,15.68 11.7866667,15.68 C12,15.68 12.16,15.7333333 12.32,15.7866667 C12.48,15.84 12.64,15.9466667 12.7466667,16.0533333 C12.8533333,16.16 12.96,16.2666667 13.0133333,16.4266667 C13.0666667,16.5866667 13.12,16.7466667 13.12,16.9066667 C13.12,17.0666667 13.0666667,17.2266667 13.0133333,17.3866667 C12.96,17.5466667 12.8533333,17.6533333 12.7466667,17.76 C12.64,17.8666667 12.48,17.9733333 12.32,18.0266667 C12.16,18.08 12,18.1333333 11.7866667,18.1333333 C11.5733333,18.1333333 11.4133333,18.08 11.2533333,18.0266667 C11.0933333,17.9733333 10.9866667,17.8666667 10.8266667,17.76 C10.72,17.6533333 10.6133333,17.5466667 10.56,17.3866667 C10.5066667,17.2266667 10.4533333,17.12 10.4533333,16.9066667 Z M12.6933333,14.4533333 L10.7733333,14.4533333 L10.5066667,6.4 L12.96,6.4 L12.6933333,14.4533333 Z" id="Shape" fill="#FFFFFF"></path>
            </g>
        </g>
    </g>
</svg>