<?xml version="1.0" encoding="UTF-8"?>
<svg width="15px" height="14px" viewBox="0 0 15 14" version="1.1" xmlns="http://www.w3.org/2000/svg" xmlns:xlink="http://www.w3.org/1999/xlink">
    <!-- Generator: Sketch 41.2 (35397) - http://www.bohemiancoding.com/sketch -->
    <title>call-icon-inactive</title>
    <desc>Created with Sketch.</desc>
    <defs></defs>
    <g id="Coach-Interface" stroke="none" stroke-width="1" fill="none" fill-rule="evenodd">
        <g id="coach-interface/chat" transform="translate(-436.000000, -71.000000)" fill="#999999">
            <g id="Group" transform="translate(436.000000, 70.000000)">
                <g id="Group-Shape" transform="translate(0.857255, 1.000000)">
                    <path d="M11.49316,13.99972 L11.47552,13.99972 C9.0846,13.92328 6.27564,11.59732 4.3386,9.65972 C2.40128,7.72212 0.07588,4.9126 0.00028,2.5312 C-0.02548,1.72564 2.01824,0.23156 2.03896,0.217 C2.49452,-0.10052 3.10688,-0.04032 3.35608,0.30436 C3.51932,0.53032 5.08116,2.89828 5.25196,3.16792 C5.4208,3.43364 5.3942,3.83348 5.18084,4.2378 C5.05736,4.473 4.63904,5.208 4.45704,5.5272 C4.64968,5.80608 5.1898,6.5254 6.33136,7.66696 C7.47964,8.81496 8.19364,9.35088 8.47084,9.5424 C8.79032,9.36012 9.5256,8.94152 9.76136,8.81748 C10.15224,8.61112 10.55908,8.58116 10.8262,8.74412 C11.10676,8.91576 13.46912,10.48656 13.68976,10.64056 C13.86308,10.76208 13.97508,10.97152 13.99664,11.21596 C14.01876,11.46544 13.94204,11.72976 13.78048,11.96048 C13.76564,11.98064 12.29004,13.99972 11.49316,13.99972 Z" id="call-icon-inactive"></path>
                </g>
            </g>
        </g>
    </g>
</svg>