<?xml version="1.0" encoding="UTF-8"?>
<svg width="10px" height="17px" viewBox="0 0 10 17" version="1.1" xmlns="http://www.w3.org/2000/svg" xmlns:xlink="http://www.w3.org/1999/xlink">
    <!-- Generator: Sketch 42 (36781) - http://www.bohemiancoding.com/sketch -->
    <title>Shape</title>
    <desc>Created with Sketch.</desc>
    <defs></defs>
    <g id="Symbols" stroke="none" stroke-width="1" fill="none" fill-rule="evenodd">
        <g id="Bars/Navigation-Bar/CGM" transform="translate(-343.000000, -36.000000)" fill-rule="nonzero" fill="#FBAD10">
            <g id="Bars/Navigation-Bar/Plain">
                <path d="M347.949528,39 L352.899344,39.0000687 C353.175827,39.0000726 353.42544,39.1118005 353.606465,39.2928248 C353.787489,39.4738492 353.899217,39.7234629 353.899221,39.9999455 L353.899289,44.9497617 C353.899297,45.5020198 353.451699,45.9496184 352.89944,45.9496107 C352.347182,45.949603 351.899571,45.501992 351.899564,44.949734 L351.899528,42.4140138 L343.706989,50.606553 C343.316666,50.9968759 342.68309,50.9968671 342.292756,50.6065333 C341.902422,50.2161996 341.902414,49.5826231 342.292736,49.1923001 L350.485276,40.999761 L347.949555,40.9997258 C347.397297,40.9997181 346.949686,40.5521071 346.949679,39.999849 C346.949671,39.4475909 347.39727,38.9999923 347.949528,39 Z" id="Shape" transform="translate(347.949645, 44.949645) rotate(-45.000000) translate(-347.949645, -44.949645) "></path>
            </g>
        </g>
    </g>
</svg>