<?xml version="1.0" encoding="UTF-8"?>
<svg width="26px" height="20px" viewBox="0 0 26 20" version="1.1" xmlns="http://www.w3.org/2000/svg" xmlns:xlink="http://www.w3.org/1999/xlink">
    <!-- Generator: Sketch 42 (36781) - http://www.bohemiancoding.com/sketch -->
    <title>Group</title>
    <desc>Created with Sketch.</desc>
    <defs></defs>
    <g id="Glucose-Guide---Material-Design" stroke="none" stroke-width="1" fill="none" fill-rule="evenodd">
        <g id="Mobile-Portrait-Copy" transform="translate(-15.000000, -91.000000)">
            <g id="Group" transform="translate(15.000000, 90.000000)">
                <path d="M24.121918,5 C23.5696335,5 23.121918,5.44771525 23.121918,6 C23.121918,6.0690356 23.124222,6.1380274 23.137543,6.203125 C23.138542,6.2080073 17.903168,11.046875 17.903168,11.046875 C17.8133675,11.0204035 17.7202935,11 17.621918,11 C17.4469105,11 17.280632,11.046006 17.137543,11.125 L13.621918,9.03125 C13.622243,9.0207705 13.621918,9.0105585 13.621918,9 C13.621918,8.44771525 13.1742025,8 12.621918,8 C12.0696335,8 11.621918,8.44771525 11.621918,9 C11.621918,9.053198 11.6295415,9.105299 11.637543,9.15625 L7.98129305,12.0625 C7.87026055,12.0199745 7.74790805,12 7.62191805,12 C7.10130855,12 6.66926405,12.3980115 6.62191805,12.90625 L1.578125,11.1875 C1.4149793,11.071847 1.2152006,11 1,11 C0.44771525,11 0,11.4477155 0,12 C0,12.5522845 0.44771525,13 1,13 C1.5206096,13 1.9526538,12.6019885 2,12.09375 L7.04379305,13.8125 C7.20693855,13.928153 7.40671755,14 7.62191805,14 C8.17420255,14 8.62191805,13.5522845 8.62191805,13 C8.62191805,12.946802 8.61429455,12.894701 8.60629305,12.84375 L12.246918,9.921875 C12.3629215,9.96894 12.4890245,10 12.621918,10 C12.8044005,10 12.974646,9.944754 13.121918,9.859375 L16.621918,11.96875 C16.621593,11.9792295 16.621918,11.9894415 16.621918,12 C16.621918,12.5522845 17.0696335,13 17.621918,13 C18.1742025,13 18.621918,12.5522845 18.621918,12 C18.621918,11.9309645 18.619614,11.8619725 18.606293,11.796875 L23.840668,6.953125 C23.9304685,6.97959635 24.0235425,7 24.121918,7 C24.6742025,7 25.121918,6.55228475 25.121918,6 C25.121918,5.44771525 24.6742025,5 24.121918,5 Z" id="Shape" fill="#00AAE2" fill-rule="nonzero" transform="translate(12.560959, 9.500000) scale(-1, 1) translate(-12.560959, -9.500000) "></path>
                <path d="M1.5,1.5 L25.5208243,1.5" id="Line" stroke="#00AAE2" stroke-linecap="round" stroke-dasharray="2,3"></path>
                <path d="M1.5,20.5 L25.5208243,20.5" id="Line-Copy" stroke="#00AAE2" stroke-linecap="round" stroke-dasharray="2,3"></path>
            </g>
        </g>
    </g>
</svg>