<?xml version="1.0" encoding="UTF-8"?>
<svg width="22px" height="22px" viewBox="0 0 22 22" version="1.1" xmlns="http://www.w3.org/2000/svg" xmlns:xlink="http://www.w3.org/1999/xlink">
    <!-- Generator: Sketch 46.2 (44496) - http://www.bohemiancoding.com/sketch -->
    <title>Shape</title>
    <desc>Created with Sketch.</desc>
    <defs></defs>
    <g id="Symbols" stroke="none" stroke-width="1" fill="none" fill-rule="evenodd" opacity="0.3">
        <g id="vega-graph/data-empty" transform="translate(-605.000000, -10.000000)" fill-rule="nonzero" fill="#00AAE2">
            <g id="Group-2" transform="translate(242.000000, 0.000000)">
                <g id="icons8-cancel_filled" transform="translate(363.000000, 10.000000)">
                    <path d="M11,0 C4.933594,0 0,4.933594 0,11 C0,17.0664065 4.933594,22 11,22 C17.0664065,22 22,17.0664065 22,11 C22,4.933594 17.0664065,0 11,0 Z M15.6035155,14.8964845 C15.798828,15.091797 15.798828,15.408203 15.6035155,15.6035155 C15.5058595,15.701172 15.3789065,15.75 15.25,15.75 C15.121094,15.75 14.9941405,15.701172 14.8964845,15.6035155 L11,11.7070315 L7.1035155,15.6035155 C7.0058595,15.701172 6.8789065,15.75 6.75,15.75 C6.621094,15.75 6.4941405,15.701172 6.3964845,15.6035155 C6.201172,15.408203 6.201172,15.091797 6.3964845,14.8964845 L10.292969,11 L6.3964845,7.1035155 C6.201172,6.908203 6.201172,6.591797 6.3964845,6.3964845 C6.591797,6.201172 6.908203,6.201172 7.1035155,6.3964845 L11,10.292969 L14.8964845,6.3964845 C15.091797,6.201172 15.408203,6.201172 15.6035155,6.3964845 C15.798828,6.591797 15.798828,6.908203 15.6035155,7.1035155 L11.7070315,11 L15.6035155,14.8964845 Z" id="Shape"></path>
                </g>
            </g>
        </g>
    </g>
</svg>