<?xml version="1.0" encoding="UTF-8"?>
<svg width="15px" height="18px" viewBox="0 0 15 18" version="1.1" xmlns="http://www.w3.org/2000/svg" xmlns:xlink="http://www.w3.org/1999/xlink">
    <!-- Generator: Sketch 42 (36781) - http://www.bohemiancoding.com/sketch -->
    <title>team-icon-white</title>
    <desc>Created with Sketch.</desc>
    <defs></defs>
    <g id="Coach-Interface" stroke="none" stroke-width="1" fill="none" fill-rule="evenodd">
        <g id="panel/transcript" transform="translate(-193.000000, -707.000000)" fill-rule="nonzero" fill="#FFFFFF">
            <g id="Group-5-Copy-6" transform="translate(184.000000, 700.000000)">
                <path d="M10.2857143,7 C9.57685714,7 9,7.57685714 9,8.28571429 L9,10.4285714 L9,23.7142857 C9,24.4231429 9.57685714,25 10.2857143,25 L22.2857143,25 C22.9945714,25 23.5714286,24.4231429 23.5714286,23.7142857 L23.5714286,8.28571429 C23.5714286,7.57685714 22.9945714,7 22.2857143,7 L10.2857143,7 Z M15.1339286,11.3928571 L17.4375,11.3928571 L17.4375,14.8482143 L20.8928571,14.8482143 L20.8928571,17.1517857 L17.4375,17.1517857 L17.4375,20.6071429 L15.1339286,20.6071429 L15.1339286,17.1517857 L11.6785714,17.1517857 L11.6785714,14.8482143 L15.1339286,14.8482143 L15.1339286,11.3928571 Z" id="team-icon-white"></path>
            </g>
        </g>
    </g>
</svg>